<svg version="1.1" baseProfile="full" width="30" height="30">
  <rect x="5" y="6" width="15" height="18" fill="none" stroke="#777;" stroke-width="2"/>
  <rect x="23" y="6" width="15" height="18" fill="none" stroke="#777;" stroke-width="2"/>
</svg>
