<svg version="1.1" baseProfile="full" width="30" height="30">
  <line x1="7" y1="15" x2="15" y2="23" stroke="#375;" stroke-width="2"/>
  <line x1="15" y1="23" x2="23" y2="7" stroke="#375;" stroke-width="2"/>
</svg>
