<svg version="1.1" baseProfile="full" width="30" height="30">
  <path
     fill="none"
     stroke="#ccc;"
     stroke-width="1.5"
     d="M 24,11
	A 10,10 0 1,0 24,19.4"
     />
  <line
      x1="24" y1="11" x2="17" y2="12"
      stroke="#ccc;"
      stroke-width="1.5"
      />
  <line
      x1="24" y1="11" x2="24" y2="4"
      stroke="#ccc;"
      stroke-width="1.5"
      />
  <path
      fill="none"
      stroke="#ccc;"
      stroke-width="2"
      d="M 15,9
	 L 10,21
	 M 15,9
	 L 20,21
	 M 11,18
	 L 19,18
	 "
      />
</svg>
