<svg version="1.1" baseProfile="full" width="30" height="30">
  <polygon points="7,12 12,12 17,7 17,23 12,18 7,18" fill="#333;" stroke="#333;" stroke-width="1"/>
  <path fill="none" stroke="#777;" stroke-width="2"
	d="M 19 10
	   A 6 6 0 0 1 19 20
	   M 22 8
	   A 9 9 0 0 1 22 22
	   "
	/>
</svg>
